0	3
1	5
2	2
3	2
4	7
5	14
6	13
7	23
8	25
9	30
10	35
11	50
12	55
13	63
14	73
15	62
16	78
17	97
18	112
19	95
20	110
21	109
22	120
23	136
24	112
25	99
26	144
27	134
28	133
29	134
30	164
31	172
32	171
33	178
34	176
35	206
36	209
37	235
38	231
39	240
40	289
41	293
42	301
43	305
44	311
45	320
46	333
47	352
48	359
49	380
50	418
51	437
52	431
53	485
54	446
55	475
56	519
57	553
58	554
59	597
60	601
61	703
62	728
63	814
64	844
65	942
66	990
67	1027
68	1112
69	1244
70	1251
71	1329
72	1488
73	1501
74	1547
75	1583
76	1649
77	1634
78	1683
79	1616
80	1742
81	1691
82	1786
83	1735
84	1764
85	1847
86	1767
87	1804
88	1827
89	1802
90	1910
91	1901
92	1923
93	1996
94	1970
95	1999
96	1982
97	1966
98	1993
99	2008
100	2081
101	1965
102	2043
103	1973
104	2081
105	2060
106	1994
107	2005
108	1847
109	1997
110	1840
111	1833
112	1916
113	1787
114	1776
115	1645
116	1707
117	1670
118	1669
119	1578
120	1645
121	1535
122	1581
123	1625
124	1548
125	1580
126	1537
127	1436
128	1422
129	1384
130	1430
131	1304
132	1316
133	1331
134	1237
135	1222
136	1196
137	1188
138	1142
139	1086
140	1132
141	1089
142	1068
143	1075
144	1039
145	942
146	975
147	1005
148	932
149	923
150	877
151	854
152	854
153	873
154	846
155	794
156	773
157	763
158	802
159	750
160	713
161	748
162	745
163	725
164	735
165	703
166	698
167	711
168	724
169	711
170	705
171	752
172	702
173	686
174	699
175	688
176	745
177	678
178	691
179	723
180	698
181	677
182	672
183	706
184	680
185	685
186	664
187	674
188	676
189	677
190	683
191	693
192	712
193	706
194	685
195	681
196	698
197	693
198	726
199	671
200	722
201	666
202	694
203	710
204	652
205	758
206	746
207	653
208	640
209	715
210	691
211	709
212	642
213	721
214	651
215	711
216	658
217	709
218	667
219	738
220	726
221	780
222	755
223	848
224	797
225	768
226	850
227	818
228	954
229	900
230	849
231	935
232	899
233	966
234	945
235	993
236	1010
237	1100
238	1013
239	1091
240	1115
241	1092
242	1198
243	1271
244	1201
245	1297
246	1396
247	1418
248	1549
249	1900
250	2047
251	3100
252	4161
253	7622
254	261500
255	0
